CMSC320 Spring 2019 Final Project
…
Now, we have all of the table data on the page as a vector of strings. We then filter out all of the elements we dont need by only taking the subset of the strings relating to the education index data, and then collapsing the entire array into a single string by using the paste function. We then create our rows for the data table by using the str_split function to separate the giant string into smaller strings based on newline characters, and then convert our array of lines into a data table.

edi <- edi[4:1131] %>% 
  paste(sep = " ", collapse = " ") %>% 
  str_split("\n") 
edi <- edi[[1]] %>% 
  as_data_frame()
edi

## # A tibble: 189 x 1
##    value                                   
##    <chr>                                   
##  1 1 Australia 0.939 20.4 13.2 2          
##  2 " 2 Denmark 0.923 19.2 12.7 5"         
##  3 " 3 New Zealand 0.917 19.2 12.5 13"    
##  4 " 4 Norway 0.916 17.7 12.7 1"          
##  5 " 5 Germany 0.914 17.1 13.2 4"         
##  6 " 6 Ireland 0.910 18.6 12.3 8"         
##  7 " 7 Iceland 0.906 19.0 12.2 9"         
##  8 " 8 United States 0.900 16.5 13.2 10"  
##  9 " 9 Netherlands 0.897 18.1 11.9 7"     
## 10 " 10 United Kingdom 0.896 16.3 13.3 16"
## # ... with 179 more rows
…
  separate(value, c("Country", NA), sep = "(?=\\d+)", remove = FALSE)
edi$Country <- gsub("(^\\s|\\s$)", "", edi$Country)
edi$intvalues <- gsub("([a-z|A-Z|'|-]+\\s*)+", "", edi$value)
edi$intvalues <- sub("^\\s+", "", edi$intvalues)
edi <- edi %>% 
  separate(intvalues, c("Index", "meanYears", "expYears", "HDI"), sep = " ", remove = TRUE)
edi <- edi[2:6]
edi$Index <- as.numeric(edi$Index)
edi$meanYears <- as.numeric(edi$meanYears)
edi$expYears <- as.numeric(edi$expYears)
edi$HDI <- as.numeric(edi$HDI)
edi<- edi[1:188,] 
edi

## # A tibble: 188 x 5
##    Country        Index meanYears expYears   HDI
##    <chr>          <dbl>     <dbl>    <dbl> <dbl>
##  1 Australia      0.939      20.4     13.2     2
##  2 Denmark        0.923      19.2     12.7     5
##  3 New Zealand    0.917      19.2     12.5    13
##  4 Norway         0.916      17.7     12.7     1
##  5 Germany        0.914      17.1     13.2     4
##  6 Ireland        0.91       18.6     12.3     8
##  7 Iceland        0.906      19       12.2     9
##  8 United States  0.9        16.5     13.2    10
##  9 Netherlands    0.897      18.1     11.9     7
## 10 United Kingdom 0.896      16.3     13.3    16
## # ... with 178 more rows
…
agesuicide <- suicide %>% 
  group_by(age, year) %>% 
  summarize(suicides = mean(suicides.100k.pop))
agesuicide

## # A tibble: 191 x 3
## # Groups:   age [?]
##    age          year suicides
##    <chr>       <int>    <dbl>
##  1 15-24 years  1985     8.43
##  2 15-24 years  1986     8.15
##  3 15-24 years  1987     7.49
##  4 15-24 years  1988     8.75
##  5 15-24 years  1989     9.16
##  6 15-24 years  1990     9.12
##  7 15-24 years  1991     9.91
##  8 15-24 years  1992     9.19
##  9 15-24 years  1993     9.33
## 10 15-24 years  1994     9.49
## # ... with 181 more rows
…
Then, we will use the augment function to obtain the residuals and fitted values of the plot, then plot the residuals vs fitted values graph. If the resulting graph does not follow any sort of pattern or uneven spread, then we can assume that a linear model is a good fit.

timeaug <- timelm %>% 
  augment()
timeaug

## # A tibble: 32 x 9
##     mean  year .fitted .se.fit  .resid   .hat .sigma   .cooksd .std.resid
##    <dbl> <int>   <dbl>   <dbl>   <dbl>  <dbl>  <dbl>     <dbl>      <dbl>
##  1  11.8  1985    13.7   0.444 -1.90   0.119    1.25 0.169        -1.58  
##  2  11.4  1986    13.7   0.423 -2.25   0.108    1.23 0.208        -1.85  
##  3  11.6  1987    13.6   0.403 -1.97   0.0981   1.25 0.141        -1.61  
##  4  12.7  1988    13.6   0.383 -0.844  0.0885   1.30 0.0230       -0.688 
##  5  12.9  1989    13.5   0.363 -0.615  0.0797   1.30 0.0108       -0.499 
##  6  12.9  1990    13.4   0.344 -0.573  0.0717   1.30 0.00825      -0.462 
##  7  13.4  1991    13.4   0.326  0.0623 0.0643   1.31 0.0000863     0.0501
##  8  13.5  1992    13.3   0.309  0.181  0.0577   1.31 0.000644      0.145 
##  9  13.8  1993    13.3   0.293  0.575  0.0519   1.30 0.00577       0.459 
## 10  14.1  1994    13.2   0.278  0.874  0.0467   1.30 0.0119        0.696 
## # ... with 22 more rows
…
To see whether a linear model fits the data, we will use augment to get the fitted values and residuals, then create a fitted values plot again.

eduaug <- edulm %>% 
  augment()
eduaug

## # A tibble: 95 x 9
##      mean Index .fitted .se.fit .resid   .hat .sigma .cooksd .std.resid
##     <dbl> <dbl>   <dbl>   <dbl>  <dbl>  <dbl>  <dbl>   <dbl>      <dbl>
##  1  3.50  0.715   10.2    0.923  -6.73 0.0122   8.36 0.00408     -0.811
##  2  0.553 0.694    9.30   1.00   -8.75 0.0144   8.34 0.00817     -1.06 
##  3 10.5   0.808   14.3    0.958  -3.86 0.0132   8.38 0.00145     -0.466
##  4  3.28  0.73    10.9    0.884  -7.62 0.0112   8.35 0.00479     -0.918
##  5 13.0   0.939   20.1    1.75   -7.12 0.0438   8.35 0.0174      -0.872
##  6 23.8   0.82    14.9    1.01    8.90 0.0146   8.34 0.00852      1.07 
##  7  1.86  0.723   10.6    0.900  -8.73 0.0116   8.34 0.00652     -1.05 
##  8  1.25  0.715   10.2    0.923  -8.98 0.0122   8.33 0.00728     -1.08 
##  9  1.85  0.717   10.3    0.917  -8.47 0.0121   8.34 0.00637     -1.02 
## 10  2.97  0.773   12.8    0.867  -9.82 0.0108   8.32 0.00764     -1.18 
## # ... with 85 more rows
…
